<?xml version="1.0" encoding="utf-8"?>
<!-- Generator: Adobe Illustrator 16.0.0, SVG Export Plug-In . SVG Version: 6.00 Build 0)  -->
<!DOCTYPE svg PUBLIC "-//W3C//DTD SVG 1.1//EN" "http://www.w3.org/Graphics/SVG/1.1/DTD/svg11.dtd">
<svg version="1.1" id="Capa_1" xmlns="http://www.w3.org/2000/svg" xmlns:xlink="http://www.w3.org/1999/xlink" x="0px" y="0px"
	 viewBox="136.206 102.169 361.168 564.82"
	 enable-background="new 136.206 102.169 361.168 564.82" xml:space="preserve">
<g>
	<path fill="#00A2DF" d="M492.018,553.07L376.365,661.929c-7.152,6.734-18.763,6.748-25.938,0.036
		c-7.174-6.713-7.186-17.613-0.033-24.348l84.381-79.424l-196.633,0.281c-55.953,0.08-101.538-42.583-101.613-95.105l-0.322-116.131
		c-0.013-9.508,8.188-17.228,18.316-17.242c10.13-0.015,18.353,7.682,18.367,17.19l0.323,116.13
		c0.048,33.536,29.154,60.778,64.881,60.726l196.633-0.28l-85.092-79.629c-7.173-6.713-7.19-17.614-0.037-24.346
		c3.577-3.366,8.269-5.054,12.963-5.06c4.694-0.008,9.389,1.666,12.976,5.021l116.449,108.975c3.446,3.226,5.384,7.6,5.39,12.168
		C497.38,545.455,495.456,549.837,492.018,553.07z"/>
	<g>
		<circle fill="#00A2DF" cx="154.715" cy="167.579" r="18.409"/>
		<circle fill="#00A2DF" cx="154.715" cy="120.579" r="18.409"/>
		<g>
			<circle fill="#00A2DF" cx="154.715" cy="214.579" r="18.409"/>
			<circle fill="#00A2DF" cx="154.715" cy="234.579" r="18.409"/>
			<rect x="136.305" y="212.25" fill="#00A2DF" width="36.819" height="20.738"/>
		</g>
		<g>
			<circle fill="#00A2DF" cx="154.715" cy="281.579" r="18.409"/>
			<circle fill="#00A2DF" cx="154.715" cy="301.579" r="18.409"/>
			<rect x="136.305" y="279.25" fill="#00A2DF" width="36.819" height="20.738"/>
		</g>
	</g>
</g>
</svg>
