<?xml version="1.0" encoding="utf-8"?>
<!-- Generator: Adobe Illustrator 16.0.0, SVG Export Plug-In . SVG Version: 6.00 Build 0)  -->
<!DOCTYPE svg PUBLIC "-//W3C//DTD SVG 1.1//EN" "http://www.w3.org/Graphics/SVG/1.1/DTD/svg11.dtd">
<svg version="1.1" id="Capa_1" xmlns="http://www.w3.org/2000/svg" xmlns:xlink="http://www.w3.org/1999/xlink" x="0px" y="0px"
	 height="24px" viewBox="230.5 0 615 560" enable-background="new 230.5 0 615 560" xml:space="preserve">
<g>
	<g>
		<path fill="#738593" d="M664.385,60.66h-16.87V42.253C647.515,18.945,629.123,0,606.49,0c-22.647,0-41.023,18.945-41.023,42.253
			v18.392h-42.1V42.253C523.367,18.945,504.976,0,482.343,0c-22.632,0-41.023,18.945-41.023,42.253v18.392h-42.1V42.253
			C399.22,18.945,380.828,0,358.196,0s-41.024,18.945-41.024,42.253v18.392H295.63c-36,0-65.3,29.301-65.3,65.301v368.754
			c0,36,29.301,65.301,65.3,65.301h368.754c36.016,0,65.301-29.301,65.301-65.301V125.945
			C729.686,89.961,700.385,60.66,664.385,60.66z M588.514,42.253c0-10.586,8.066-19.206,17.977-19.206
			c9.926,0,17.977,8.62,17.977,19.206v75.226c0,10.586-8.051,19.206-17.977,19.206c-9.91,0-17.977-8.62-17.977-19.206V42.253z
			 M464.366,42.253c0-10.586,8.066-19.206,17.977-19.206c9.911,0,17.978,8.62,17.978,19.206v75.226
			c0,10.586-8.066,19.206-17.978,19.206c-9.91,0-17.977-8.62-17.977-19.206V42.253z M340.204,42.253
			c0-10.586,8.066-19.206,17.977-19.206c9.911,0,17.977,8.62,17.977,19.206v75.226c0,10.586-8.066,19.206-17.977,19.206
			c-9.91,0-17.977-8.62-17.977-19.206V42.253z M691.273,494.715c0,14.827-12.062,26.889-26.889,26.889H295.63
			c-14.827,0-26.888-12.062-26.888-26.889V156.69h422.531V494.715z"/>
		<rect x="303.313" y="224.725" fill="#738593" width="70.602" height="62.827"/>
		<rect x="397.545" y="224.725" fill="#738593" width="70.616" height="62.827"/>
		<rect x="491.854" y="224.725" fill="#738593" width="70.602" height="62.827"/>
		<rect x="586.086" y="224.725" fill="#738593" width="70.617" height="62.827"/>
		<rect x="303.313" y="308.586" fill="#738593" width="70.602" height="62.78"/>
		<rect x="397.545" y="308.586" fill="#738593" width="70.616" height="62.78"/>
		<rect x="491.854" y="308.586" fill="#738593" width="70.602" height="62.78"/>
		<rect x="586.086" y="308.586" fill="#738593" width="70.617" height="62.78"/>
		<rect x="303.313" y="392.416" fill="#738593" width="70.602" height="62.781"/>
		<rect x="397.545" y="392.416" fill="#738593" width="70.616" height="62.781"/>
		<rect x="491.854" y="392.416" fill="#738593" width="70.602" height="62.781"/>
		<rect x="586.086" y="392.416" fill="#738593" width="70.617" height="62.781"/>
	</g>
</g>
<circle fill="#FFFFFF" cx="625.5" cy="218.5" r="218.5"/>
<g id="_x30_d761291-d7c4-42bf-9433-98aad825bfb6">
	<g id="bede06dd-acf7-4be6-a923-734e194ecf5e">
		<path fill="#02BDB6" d="M625.5,78.724c77.195,0,139.775,62.58,139.775,139.776c0,77.195-62.58,139.775-139.775,139.775
			c-77.196,0-139.775-62.58-139.775-139.775C485.814,141.341,548.341,78.814,625.5,78.724 M625.5,32.132
			c-102.928,0-186.368,83.439-186.368,186.368c0,102.928,83.44,186.367,186.368,186.367S811.867,321.428,811.867,218.5
			C811.867,115.572,728.428,32.132,625.5,32.132z"/>
	</g>
	<polygon fill="#02BDB6" points="695.388,195.204 648.796,195.204 648.796,148.612 602.204,148.612 602.204,195.204 
		555.612,195.204 555.612,241.796 602.204,241.796 602.204,288.388 648.796,288.388 648.796,241.796 695.388,241.796 	"/>
</g>
</svg>
