<?xml version="1.0" encoding="utf-8"?>
<!DOCTYPE svg PUBLIC "-//W3C//DTD SVG 1.1//EN" "http://www.w3.org/Graphics/SVG/1.1/DTD/svg11.dtd">
<svg version="1.1" xmlns="http://www.w3.org/2000/svg" xmlns:xlink="http://www.w3.org/1999/xlink" x="0px" y="0px" viewBox="0 0 1000 1000" enable-background="new 0 0 1000 1000" xml:space="preserve">
<g><path d="M500,10C229.4,10,10,229.4,10,500s219.4,490,490,490s490-219.4,490-490S770.6,10,500,10z M500,937.1C258.6,937.1,62.9,741.4,62.9,500C62.9,258.6,258.6,62.9,500,62.9c241.4,0,437.1,195.7,437.1,437.1C937.1,741.4,741.4,937.1,500,937.1z"/><path d="M721.8,352.1c-13.6-13.6-35.7-13.6-49.3,0L450.7,573.9L327.5,450.7c-13.6-13.6-35.7-13.6-49.3,0c-13.6,13.6-13.6,35.7,0,49.3l147.9,147.9c13.6,13.6,35.7,13.6,49.3,0l246.4-246.4C735.4,387.8,735.4,365.7,721.8,352.1z"/></g>
</svg>