<svg version="1.1" id="Layer_1" xmlns="http://www.w3.org/2000/svg" xmlns:xlink="http://www.w3.org/1999/xlink" x="0px" y="0px" width="24" height="24" viewBox="0 0 32 32" style="enable-background:new 0 0 32 32;" xml:space="preserve">
	<style type="text/css">
		svg {
		cursor: pointer;
		}
		svg:hover .st1 {
			animation: line 1.5s linear infinite;
			-webkit-animation: line 1.5s linear infinite;
		}

		svg:hover .st2 {
			animation: line1 1.5s linear infinite;
			-webkit-animation: line1 1.5s linear infinite;
		}

		@keyframes line {

			0%,
			10% {
				stroke-dasharray: 71;
				stroke-dashoffset: 71;
			}

			100% {
				stroke-dashoffset: 0;
			}
		}

		@-webkit-keyframes line {

			0%,
			10% {
				stroke-dasharray: 71;
				stroke-dashoffset: 71;
			}

			100% {
				stroke-dashoffset: 0;
			}
		}

		@keyframes line1 {

			0%,
			20% {
				stroke-dasharray: 51;
				stroke-dashoffset: 51;
			}

			100% {
				stroke-dashoffset: 0;
			}
		}

		@-webkit-keyframes line1 {

			0%,
			20% {
				stroke-dasharray: 51;
				stroke-dashoffset: 51;
			}

			100% {
				stroke-dashoffset: 0;
			}
		}

		.st0 {
			fill: #00A2DF;
		}

		.st1,
		.st2 {
			fill: none;
			stroke: #00A2DF;
			stroke-width: 2;
			stroke-linecap: round;
			stroke-miterlimit: 9.2308;
		}

	</style>
	<g>
		<path class="st0" d="M28,0H4C1.8,0,0,1.8,0,4v18c0,2.2,1.8,4,4,4h6v5.3c0,0.4,0.4,0.8,0.8,0.8c0.2,0,0.3,0,0.4-0.1L19,26h9
		c2.2,0,4-1.8,4-4V4C32,1.8,30.2,0,28,0z M28,24h-9.7l-0.5,0.4L12,28.8V24H4c-1.1,0-2-0.9-2-2V4c0-1.1,0.9-2,2-2h24c1.1,0,2,0.9,2,2
		v18h0C30,23.1,29.1,24,28,24z" />
	</g>
	<line class="st1" x1="8.4" y1="10" x2="23.6" y2="10" />
	<line class="st2" x1="8.4" y1="16" x2="17.6" y2="16" />
</svg>
