<?xml version="1.0" encoding="utf-8"?>
<!-- Generator: Adobe Illustrator 16.0.0, SVG Export Plug-In . SVG Version: 6.00 Build 0)  -->
<!DOCTYPE svg PUBLIC "-//W3C//DTD SVG 1.1//EN" "http://www.w3.org/Graphics/SVG/1.1/DTD/svg11.dtd">
<svg version="1.1" id="Layer_1" xmlns="http://www.w3.org/2000/svg" xmlns:xlink="http://www.w3.org/1999/xlink" x="0px" y="0px"
	 viewBox="0 121.445 595.279 597" enable-background="new 0 121.445 595.279 597"
	 xml:space="preserve">
<g>
	<g>
		<path fill="#B9C2C8" stroke="#FFFFFF" stroke-width="0.5" stroke-miterlimit="10" d="M580.26,385.049l-23.785-47.569
			c23.123-12.62,38.805-37.149,38.805-65.355c0-41.105-33.304-74.41-74.409-74.41H372.05v-49.607
			c0-13.698-11.104-24.803-24.803-24.803h-74.41c-13.698,0-24.803,11.105-24.803,24.803v49.607c-13.7,0-24.805,11.104-24.805,24.803
			v248.033h-24.803v-74.41c0-13.699-11.104-24.803-24.803-24.803H148.82v-49.607h24.804c13.698,0,24.803-11.104,24.803-24.803
			c0-13.698-11.104-24.803-24.803-24.803H148.82v-24.803c0-13.699-11.104-24.803-24.803-24.803s-24.803,11.104-24.803,24.803v24.803
			H74.41c-13.699,0-24.804,11.104-24.804,24.803c0,13.699,11.104,24.803,24.804,24.803h24.803v49.607H74.41
			c-13.699,0-24.804,11.104-24.804,24.803v74.41H24.803C11.105,470.552,0,481.656,0,495.355v124.017
			c0,13.698,11.104,24.803,24.803,24.803h24.803c0,41.106,33.305,74.41,74.41,74.41s74.41-33.304,74.41-74.41h198.427
			c0,41.106,33.305,74.41,74.41,74.41s74.41-33.304,74.41-74.41h24.803c13.698,0,24.803-11.104,24.803-24.803V495.355v-74.41
			c0-3.851-0.896-7.648-2.618-11.093L580.26,385.049z M545.673,426.8v43.752h-49.607v-49.606h46.68L545.673,426.8z M545.673,272.125
			c0,13.709-11.094,24.803-24.803,24.803H372.05v-49.607h148.82C534.578,247.322,545.673,258.416,545.673,272.125z M297.64,172.912
			h24.803v24.803H297.64V172.912z M272.837,247.322h49.606v74.41v148.82h-49.606V247.322L272.837,247.322z M99.213,420.945h49.606
			v49.606H99.213V420.945z M124.017,668.979c-13.709,0-24.803-11.095-24.803-24.804c0-3.816,0.885-7.416,2.422-10.645
			c0.374-0.54,0.737-1.09,1.07-1.663c3.383-5.798,8.716-9.922,14.881-11.625c0.027-0.007,0.055-0.015,0.082-0.021
			c0.672-0.183,1.355-0.328,2.045-0.452c0.465-0.081,0.93-0.159,1.403-0.214c0.239-0.029,0.48-0.051,0.721-0.073
			c0.719-0.063,1.443-0.109,2.178-0.109c0.735,0,1.459,0.048,2.178,0.109c0.24,0.022,0.481,0.044,0.721,0.073
			c0.474,0.055,0.939,0.133,1.403,0.214c0.689,0.124,1.373,0.27,2.045,0.452c0.027,0.007,0.055,0.015,0.082,0.021
			c6.165,1.703,11.5,5.827,14.881,11.625c0.333,0.573,0.695,1.123,1.07,1.663c1.537,3.229,2.423,6.828,2.423,10.645
			C148.82,657.884,137.726,668.979,124.017,668.979z M471.263,668.979c-13.709,0-24.803-11.095-24.803-24.804
			c0-3.816,0.886-7.416,2.423-10.645c0.374-0.54,0.736-1.09,1.07-1.663c3.383-5.798,8.716-9.922,14.881-11.625
			c0.027-0.007,0.055-0.015,0.082-0.021c0.672-0.183,1.355-0.328,2.045-0.452c0.465-0.081,0.93-0.159,1.403-0.214
			c0.239-0.029,0.48-0.051,0.721-0.073c0.719-0.063,1.443-0.109,2.178-0.109s1.459,0.048,2.178,0.109
			c0.24,0.022,0.481,0.044,0.721,0.073c0.474,0.055,0.939,0.133,1.403,0.214c0.689,0.124,1.373,0.27,2.045,0.452
			c0.027,0.007,0.055,0.015,0.082,0.021c6.165,1.703,11.499,5.827,14.881,11.625c0.333,0.573,0.695,1.123,1.07,1.663
			c1.537,3.229,2.423,6.828,2.423,10.645C496.067,657.884,484.973,668.979,471.263,668.979z M526.718,594.568
			c-11.917-13.313-28.554-22.305-47.289-24.349c-0.07-0.008-0.142-0.02-0.212-0.026c-1.137-0.121-2.281-0.21-3.433-0.278
			c-0.188-0.012-0.371-0.032-0.558-0.042c-1.313-0.068-2.634-0.106-3.964-0.106s-2.651,0.038-3.964,0.106
			c-0.187,0.011-0.37,0.031-0.558,0.042c-1.151,0.068-2.296,0.158-3.433,0.278c-0.07,0.008-0.141,0.019-0.211,0.026
			c-18.735,2.044-35.373,11.035-47.29,24.349H179.472c-11.917-13.313-28.554-22.305-47.289-24.349
			c-0.071-0.008-0.141-0.02-0.212-0.026c-1.136-0.121-2.281-0.21-3.433-0.278c-0.186-0.012-0.37-0.032-0.558-0.042
			c-1.313-0.068-2.634-0.106-3.964-0.106s-2.65,0.038-3.963,0.106c-0.188,0.011-0.371,0.031-0.559,0.042
			c-1.15,0.068-2.296,0.158-3.432,0.278c-0.071,0.008-0.141,0.019-0.212,0.026c-18.735,2.044-35.373,11.035-47.29,24.349H49.607
			v-74.41H74.41h99.213h74.41h99.212c13.699,0,24.804-11.104,24.804-24.803v-148.82h133.49l12.402,24.803h-46.68
			c-13.698,0-24.803,11.104-24.803,24.803v99.214c0,13.698,11.104,24.803,24.803,24.803h74.41v74.41H526.718z"/>
	</g>
</g>
<g>
	
		<rect x="-72.495" y="404.5" transform="matrix(-0.7078 0.7064 -0.7064 -0.7078 804.8839 525.678)" fill="#B9C2C8" stroke="#FFFFFF" stroke-width="0.5" stroke-miterlimit="10" width="732.436" height="49.606"/>
</g>
</svg>
